{
	"podDescVersion": "v1.1.0",
    "podInfo": {
        "version": "v1.0.0.0",
        "uuid": "2312b527-c636-3e8c-a489-fd2865e5c883",
        "context": "cyber-challenges",
        "type": "webapp",
        "name": "TechSupportAccess",
        "creator": "Nathan Touati",
        "maintainer": "Nathan Touati",
        "maxPlayers": 10,
        "playTime": 180,
        "notes": "",
        "skillset": "This challenge requires to perform a basic application enumeration using directory listing and exploit an XXE vulnerability in order to access files on the server.",
		"previewImage": "PREVIEW-IMAGE",
        "tags": ["webpt","xxe","burpsuite"]
    },
    "context": {
        "practiceDesc": {
            "info": {
                "identifier": "LID-INTRO-TO-LNX",
                "category": "Red/Blue",
                "module": "Linux Management",
                "difficulty": "Easy / Medium / Hard / Insane",
                "overview": "<EOL>In this section, you will learn the basics of Linux navigation and file creation.<EOL><EOL><EOL>After this course you will know :<EOL><EOL><b>* Navigate within Linux<EOL>* List the content of folders<EOL>* Read the content of files<EOL>* Create new files and folders<EOL>* Remove files and folders<EOL>* Write into files<EOL><EOL></b>And more...",
                "video": "VID-INTRO-TO-LNX"
            },
            "content": {
                "missions": [{
                        "id": "MID-LINUX-NAVIGATION",
                        "name": "Linux Navigation",
                        "description": "Learn how to navigate in a Linux system",
                        "tasks": [{
                                "id": "TID-LX-NAV-DISP-PWD",
                                "checkerId": "b49661d1-3709-4817-9c95-51c08d6ea205",
                                "instruction": "Display your current directory using the pwd command",
                                "solution": "pwd",
                                "explanation": "pwd stands for Print Working Directory.;It prints the path of the current working directory (The directory where the command run from)."
                            }, {
                                "id": "TID-LX-NAV-CHANGE-ETC",
                                "checkerId": "2cbe98fe-f6d3-4b3d-973d-75c8a79b34d5",
                                "instruction": "Change Your location to the /etc directory",
                                "solution": "cd /etc",
                                "explanation": ""
                            }
                        ]
                    }, {
                        "id": "MID-LINUX-DIRECTORIES",
                        "name": "Directories",
                        "description": "Learn how to work with directories",
                        "tasks": [{
                                "id": "TID-LX-DIR-DISP-PWD",
                                "checkerId": "850caad3-d7b4-428c-ad67-1bf7b55e47a7",
                                "instruction": "Display your current directory using the pwd command",
                                "solution": "pwd",
                                "explanation": "pwd stands for Print Working Directory.;It prints the path of the current working directory (The directory where the command run from)."
                            }, {
                                "id": "TID-LX-DIR-CHANGE-ETC",
                                "checkerId": "294d074b-badc-49ea-80f6-d122ad3b1b9b",
                                "instruction": "Change Your location to the /etc directory",
                                "solution": "cd /etc",
                                "explanation": ""
                            }
                        ]
                    }
                ],
                "order": [{
                        "MID-LINUX-NAVIGATION": [
                            "TID-LX-NAV-CHANGE-ETC",
                            "TID-LX-NAV-DISP-PWD"
                        ]
                    }, {
                        "MID-LINUX-DIRECTORIES": [
                            "TID-LX-DIR-DISP-PWD",
                            "TID-LX-DIR-CHANGE-ETC"
                        ]
                    }
                ]
            }
        },
        "challengeDesc": {
            "info": {
                "identifier": "WAPT_TECH-SUPPORT-ACCESS",
                "category": "WebPT",
                "difficulty": "Medium",
                "scenario": "An anonymous person hired you to hack his rival’s website and retrieve a special flag.You must do so secretly.",
                "objectives": ["Find the flag in the admin panel"],
                "instructionGuide": "TECH-SUPPORT-ACCESS_LAB-INSTRUCTIONS"
            },
            "content": {
                "hints": [{
                        "text": "Did you try to hide the tags?",
                        "cost": 30
                    }
                ],
                "flags": [{
                        "sequence": 0,
                        "id": "TECH-SUPPORT-ACCESS_FLAG",
                        "title": "Flag",
                        "value": "1e1bba411ee696f72b8a0bf324d51a73"
                    }
                ]
            }
        }
    },
    "files": [{
        "id": "PREVIEW-IMAGE",
        "path": "\\rsrc\\Preview.jpeg",
        "displayName": "preview-image",
        "description": "The preview image",
        "downloadable": false
    }],
    "ports": [{
        "number": 8443,
        "displayType": "visible"
    }, {
        "number": 22,
        "displayType": "hidden"
    }]
}
